This is BibTeX, Version 0.99d (TeX Live 2015/Debian)
Capacity: max_strings=35307, hash_size=35307, hash_prime=30011
The top-level auxiliary file: proj2.aux
The style file: czplain.bst
Reallocated singl_function (elt_size=4) to 100 items from 50.
Reallocated singl_function (elt_size=4) to 100 items from 50.
Reallocated singl_function (elt_size=4) to 100 items from 50.
Reallocated singl_function (elt_size=4) to 100 items from 50.
Reallocated singl_function (elt_size=4) to 100 items from 50.
Reallocated wiz_functions (elt_size=4) to 6000 items from 3000.
Database file #1: mybib.bib
Warning--empty edition in Benczur
Warning--empty edition in LaplacianSystem
Warning--empty number in LaplacianSystem
Warning--empty pages in LaplacianSystem
Warning--empty editor and organization in NearlyLinerar
Warning--empty edition in NearlyLinerar
Warning--empty edition in DirectedReduction
Warning--empty number in DirectedReduction
Warning--empty pages in DirectedReduction
You've used 4 entries,
            3461 wiz_defined-function locations,
            747 strings with 5560 characters,
and the built_in function-call counts, 1942 in all, are:
= -- 142
> -- 61
< -- 11
+ -- 20
- -- 16
* -- 128
:= -- 275
add.period$ -- 18
call.type$ -- 4
change.case$ -- 31
chr.to.int$ -- 12
cite$ -- 13
duplicate$ -- 124
empty$ -- 223
format.name$ -- 16
if$ -- 440
int.to.chr$ -- 0
int.to.str$ -- 4
missing$ -- 0
newline$ -- 36
num.names$ -- 8
pop$ -- 37
preamble$ -- 1
purify$ -- 18
quote$ -- 0
skip$ -- 71
stack$ -- 0
substring$ -- 103
swap$ -- 27
text.length$ -- 5
text.prefix$ -- 0
top$ -- 0
type$ -- 8
warning$ -- 9
while$ -- 15
width$ -- 5
write$ -- 61
(There were 9 warnings)
