file,vertices,density-gen,edges,density,flow,elapsed
data/v100-d0.95.csv,100,0.95,9497,0.9592929292929293,290,0.038646984999999995
data/v200-d0.95.csv,200,0.95,38019,0.9552512562814071,537,0.076882274
data/v300-d0.95.csv,300,0.95,85629,0.9546153846153846,942,0.358971693
data/v400-d0.95.csv,400,0.95,152110,0.9530701754385965,1069,1.077564863
data/v500-d0.95.csv,500,0.95,237630,0.9524248496993988,1532,1.3274937329999998
data/v600-d0.95.csv,600,0.95,342051,0.9517278797996661,1811,2.6209067369999994
data/v700-d0.95.csv,700,0.95,465589,0.9515409769057838,2110,3.5138046470000006
data/v800-d0.95.csv,800,0.95,607552,0.9504881101376721,2560,6.051277747
data/v900-d0.95.csv,900,0.95,769890,0.9515387467556544,2741,7.402807415000002
data/v1000-d0.95.csv,1000,0.95,950333,0.9512842842842842,2968,3.2381049129999973
data/v1100-d0.95.csv,1100,0.95,1149499,0.9508635950037224,3413,7.789777465999997
data/v1200-d0.95.csv,1200,0.95,1368015,0.950802752293578,3633,4.900615850999998
data/v1300-d0.95.csv,1300,0.95,1605485,0.9507224492212945,3743,8.504982143
data/v1400-d0.95.csv,1400,0.95,1861691,0.9505212907178597,4472,15.114734764000005
data/v1500-d0.95.csv,1500,0.95,2137867,0.9507969757616188,4665,14.077985644999998
data/v1600-d0.95.csv,1600,0.95,2431741,0.9504928861788617,4818,19.467126078999996
data/v1700-d0.95.csv,1700,0.95,2746352,0.9508541356507288,5219,14.022745893999996
data/v1800-d0.95.csv,1800,0.95,3077921,0.9505036748811068,5616,22.507210299999997
data/v1900-d0.95.csv,1900,0.95,3429899,0.9506108478146393,5883,31.603396263000008
data/v2000-d0.95.csv,2000,0.95,3800578,0.9506198099049524,6299,49.07081414200002
