file,vertices,density-gen,edges,density,flow,elapsed
data/v100-d0.95-1.csv,100,0.95,9488,0.9583838383838383,477,0.026406185
data/v100-d0.95-2.csv,100,0.95,9506,0.9602020202020202,511,0.04915001299999999
data/v100-d0.95-3.csv,100,0.95,9495,0.9590909090909091,511,0.05272448200000002
data/v500-d0.95-1.csv,500,0.95,237641,0.9524689378757515,2550,7.455146871
data/v500-d0.95-2.csv,500,0.95,237601,0.9523086172344689,2589,5.302503519
data/v500-d0.95-3.csv,500,0.95,237393,0.9514749498997996,2574,4.709993460999998
data/v1000-d0.95-1.csv,1000,0.95,950340,0.9512912912912913,5173,16.485219658000002
data/v1000-d0.95-2.csv,1000,0.95,949889,0.9508398398398399,5176,39.240868434
data/v1000-d0.95-3.csv,1000,0.95,950210,0.9511611611611611,5042,11.163834734000005
data/v1500-d0.95-1.csv,1500,0.95,2137885,0.9508049810985101,7761,13.583831384000007
data/v1500-d0.95-2.csv,1500,0.95,2137196,0.9504985545919502,7714,101.50538843999999
data/v1500-d0.95-3.csv,1500,0.95,2137968,0.9508418945963976,7723,104.874578853
data/v2000-d0.95-1.csv,2000,0.95,3799266,0.9502916458229115,10347,194.32515878299995
data/v2000-d0.95-2.csv,2000,0.95,3799855,0.9504389694847424,10251,25.487232019999965
data/v2000-d0.95-3.csv,2000,0.95,3799809,0.9504274637318659,10407,56.80783581999992
data/v2500-d0.95-1.csv,2500,0.95,5937282,0.9503452581032413,12861,45.93425102000003
data/v2500-d0.95-2.csv,2500,0.95,5938223,0.9504958783513405,12882,40.86474712900008
data/v2500-d0.95-3.csv,2500,0.95,5937218,0.9503350140056023,12930,498.73612353400006
data/v3000-d0.95-1.csv,3000,0.95,8550185,0.9503373346671112,15869,307.09439165899994
data/v3000-d0.95-2.csv,3000,0.95,8551143,0.9504438146048683,15756,752.717186993
data/v3000-d0.95-3.csv,3000,0.95,8550310,0.9503512281871735,15708,261.2789065429997
